module github.com/ybkuroki/go-webapp-sample

go 1.20

require (
	github.com/alecthomas/template v0.0.0-20190718012654-fb15b899a751
	github.com/garyburd/redigo v1.6.4 // indirect
	github.com/go-openapi/jsonreference v0.20.2 // indirect
	github.com/go-openapi/swag v0.22.3 // indirect
	github.com/go-playground/universal-translator v0.18.1 // indirect
	github.com/gorilla/sessions v1.2.1
	github.com/labstack/echo-contrib v0.15.0
	github.com/labstack/echo/v4 v4.10.2
	github.com/leodido/go-urn v1.2.4 // indirect
	github.com/mailru/easyjson v0.7.7 // indirect
	github.com/mattn/go-isatty v0.0.19 // indirect
	github.com/mattn/go-sqlite3 v1.14.16 // indirect
	github.com/moznion/go-optional v0.10.0
	github.com/stretchr/testify v1.8.2
	github.com/swaggo/echo-swagger v1.4.0
	github.com/swaggo/swag v1.16.1
	github.com/valyala/fasttemplate v1.2.2
	go.uber.org/zap v1.24.0
	golang.org/x/crypto v0.9.0
	golang.org/x/net v0.10.0 // indirect
	golang.org/x/sys v0.8.0 // indirect
	golang.org/x/tools v0.9.1 // indirect
	gopkg.in/boj/redistore.v1 v1.0.0-20160128113310-fc113767cd6b
	gopkg.in/go-playground/assert.v1 v1.2.1 // indirect
	gopkg.in/go-playground/validator.v9 v9.31.0
	gopkg.in/natefinch/lumberjack.v2 v2.2.1
	gopkg.in/yaml.v3 v3.0.1
	gorm.io/driver/mysql v1.5.1
	gorm.io/driver/postgres v1.5.2
	gorm.io/driver/sqlite v1.5.1
	gorm.io/gorm v1.25.1
)

require (
	github.com/KyleBanks/depth v1.2.1 // indirect
	github.com/PuerkitoBio/purell v1.2.0 // indirect
	github.com/PuerkitoBio/urlesc v0.0.0-20170810143723-de5bf2ad4578 // indirect
	github.com/davecgh/go-spew v1.1.1 // indirect
	github.com/go-openapi/jsonpointer v0.19.6 // indirect
	github.com/go-openapi/spec v0.20.9 // indirect
	github.com/go-playground/locales v0.14.1 // indirect
	github.com/go-sql-driver/mysql v1.7.1 // indirect
	github.com/golang-jwt/jwt v3.2.2+incompatible // indirect
	github.com/gorilla/context v1.1.1 // indirect
	github.com/gorilla/securecookie v1.1.1 // indirect
	github.com/jackc/pgpassfile v1.0.0 // indirect
	github.com/jackc/pgservicefile v0.0.0-20221227161230-091c0ba34f0a // indirect
	github.com/jackc/pgx/v5 v5.3.1 // indirect
	github.com/jinzhu/inflection v1.0.0 // indirect
	github.com/jinzhu/now v1.1.5 // indirect
	github.com/josharian/intern v1.0.0 // indirect
	github.com/labstack/gommon v0.4.0 // indirect
	github.com/mattn/go-colorable v0.1.13 // indirect
	github.com/pmezard/go-difflib v1.0.0 // indirect
	github.com/swaggo/files/v2 v2.0.0 // indirect
	github.com/valyala/bytebufferpool v1.0.0 // indirect
	go.uber.org/atomic v1.11.0 // indirect
	go.uber.org/multierr v1.11.0 // indirect
	golang.org/x/text v0.9.0 // indirect
	golang.org/x/time v0.3.0 // indirect
	gopkg.in/yaml.v2 v2.4.0 // indirect
)
